{
  "profiles": {
    "kestrel": {
      "commandName": "kestrel",
      "environmentVariables": {
        "LOG_FORMAT": "plain",
        "LOAN_FILTERS_CONFIGURATION_HOST": "10.1.1.99",
        "LOAN_FILTERS_CONFIGURATION_PORT": "5001",
        "LOAN_FILTERS_TENANT_HOST": "10.1.1.99",
        "LOAN_FILTERS_TENANT_PORT": "5005",
        "LOAN_FILTERS_EVENTHUB_HOST": "10.1.1.99",
        "LOAN_FILTERS_EVENTHUB_PORT": "5006",
        "LOAN_FILTERS_LOAN_HOST": "10.1.1.99",
        "LOAN_FILTERS_LOAN_PORT": "5007",
        "LOAN_FILTERS_MONGO_CONNECTION": "mongodb://10.1.1.99:27017"
      }
    }
  }
}