{
  "version": "1.0.0",
  "dependencies": {
    "LendFoundry.Foundation.Persistence": "1.0.1-*",
    "LendFoundry.Foundation.Persistence.Mongo": "1.0.1-*",
    "LendFoundry.Loans.Filters.Abstractions": "",
    "LendFoundry.Tenant.Client": "1.0.9-*",
    "Microsoft.AspNet.FileProviders.Abstractions": "1.0.0-beta8",
    "Microsoft.AspNet.Hosting.Abstractions": "1.0.0-beta8",
    "Microsoft.AspNet.Http": "1.0.0-beta8",
    "Microsoft.AspNet.Http.Abstractions": "1.0.0-beta8",
    "Microsoft.CSharp": "4.0.0",
    "Microsoft.Framework.DependencyInjection.Abstractions": "1.0.0-beta8",
    "Microsoft.AspNet.Http.Features": "1.0.0-beta8",
    "Microsoft.AspNet.WebUtilities": "1.0.0-beta8",
    "Microsoft.Net.Http.Headers": "1.0.0-beta8",
    "MongoDB.Driver": "2.2.0"
  },
  "frameworks": {
    "dnx451": { }
  }
}
